Project II ST558
================
Pratap Adhikari
10/9/2020

``` r
popData<- read_csv("OnlineNewsPopularity.csv")
popData
```

    ## # A tibble: 39,644 x 61
    ##    url   timedelta n_tokens_title n_tokens_content n_unique_tokens
    ##    <chr>     <dbl>          <dbl>            <dbl>           <dbl>
    ##  1 http~       731             12              219           0.664
    ##  2 http~       731              9              255           0.605
    ##  3 http~       731              9              211           0.575
    ##  4 http~       731              9              531           0.504
    ##  5 http~       731             13             1072           0.416
    ##  6 http~       731             10              370           0.560
    ##  7 http~       731              8              960           0.418
    ##  8 http~       731             12              989           0.434
    ##  9 http~       731             11               97           0.670
    ## 10 http~       731             10              231           0.636
    ## # ... with 39,634 more rows, and 56 more variables: n_non_stop_words <dbl>,
    ## #   n_non_stop_unique_tokens <dbl>, num_hrefs <dbl>, num_self_hrefs <dbl>,
    ## #   num_imgs <dbl>, num_videos <dbl>, average_token_length <dbl>,
    ## #   num_keywords <dbl>, data_channel_is_lifestyle <dbl>,
    ## #   data_channel_is_entertainment <dbl>, data_channel_is_bus <dbl>,
    ## #   data_channel_is_socmed <dbl>, data_channel_is_tech <dbl>,
    ## #   data_channel_is_world <dbl>, kw_min_min <dbl>, kw_max_min <dbl>,
    ## #   kw_avg_min <dbl>, kw_min_max <dbl>, kw_max_max <dbl>, kw_avg_max <dbl>,
    ## #   kw_min_avg <dbl>, kw_max_avg <dbl>, kw_avg_avg <dbl>,
…
